Stage1_example.utf8
…
q2range1 <- bdims %>% select(sho_gi, wgt, sex) %>%
  filter(between(wgt,60,70))
q2range1

## # A tibble: 124 x 3
##    sho_gi   wgt   sex
##     <dbl> <dbl> <int>
##  1   106.  65.6     1
##  2   111   62       1
##  3   120   70       1
##  4   118.  66.2     1
##  5   108.  63.2     1
##  6   100.  60.9     1
##  7   118.  70       1
##  8   112   69.1     1
##  9   115.  67.2     1
## 10   108   61.3     1
## #  with 114 more rows
…
data(bdims)

## Warning in data(bdims): data set 'bdims' not found

q2range2 <- bdims %>% select(sho_gi, wgt, sex) %>%
  filter(between(wgt,70,80))
q2range2

## # A tibble: 117 x 3
##    sho_gi   wgt   sex
##     <dbl> <dbl> <int>
##  1   110.  71.8     1
##  2   104.  72.6     1
##  3   108.  78.8     1
##  4   120.  74.8     1
##  5   120.  78.4     1
##  6   117.  76.6     1
##  7   113   74.6     1
##  8   108.  71       1
##  9   112   79.6     1
## 10   120   70       1
## #  with 107 more rows
…
data(bdims)

## Warning in data(bdims): data set 'bdims' not found

q2range3 <- bdims %>% select(sho_gi, wgt, sex) %>%
  filter(between(wgt,80,90))
q2range3

## # A tibble: 88 x 3
##    sho_gi   wgt   sex
##     <dbl> <dbl> <int>
##  1   115.  80.7     1
##  2   124.  86.4     1
##  3   120.  81.6     1
##  4   124.  83.6     1
##  5   116.  90       1
##  6   118.  85.9     1
##  7   124.  86.4     1
##  8   121.  81.8     1
##  9   130.  89.6     1
## 10   115   82.8     1
## #  with 78 more rows
…
